%YAML 1.1
%TAG !u! tag:unity3d.com,2011:
--- !u!1045 &1
EditorBuildSettings:
  m_ObjectHideFlags: 0
  serializedVersion: 2
  m_Scenes:
  - enabled: 1
    path: Assets/Scenes/MainMenu.unity
    guid: 58bca9b9ff6e44b4dad6456ec2232846
  - enabled: 1
    path: Assets/Scenes/Level 1.unity
    guid: 495c24d402e2018438c9d54d84b1e02b
  - enabled: 1
    path: Assets/Scenes/Option.unity
    guid: 5ce7f5d2c470e6c449fb477eb707f444
  - enabled: 1
    path: Assets/Scenes/Credit.unity
    guid: 322f55ba13b5a2c4992c9f7da2a89cf8
  m_configObjects: {}
